Waste Type,Year,Month,Waste KG
Recycling,2020,1,9766
Recycling,2020,2,1389
Recycling,2020,3,5530
Recycling,2020,4,1973
Recycling,2020,5,9069
Recycling,2020,6,8725
Recycling,2020,7,8093
Recycling,2020,8,4595
Recycling,2020,9,7926
Recycling,2020,10,5642
Recycling,2020,11,9850
Recycling,2020,12,2546
