Week,Start Date Day,Start Date Month,Start Date Year,End Date Day,End Date Month,End Date Year
30/12/2019 - 05/01/2020,30,12,2019,5,1,2020
06/01/2020 - 12/01/2020,6,1,2020,12,1,2020
13/01/2020 - 19/01/2020,13,1,2020,19,1,2020
20/01/2020 - 26/01/2020,20,1,2020,26,1,2020
27/01/2020 - 02/02/2020,27,1,2020,2,2,2020
03/02/2020 - 09/02/2020,3,2,2020,9,2,2020
10/02/2020 - 16/02/2020,10,2,2020,16,2,2020
17/02/2020 - 23/02/2020,17,2,2020,23,2,2020
24/02/2020 - 01/03/2020,24,2,2020,1,3,2020
02/03/2020 - 08/03/2020,2,3,2020,8,3,2020
09/03/2020 - 15/03/2020,9,3,2020,15,3,2020
16/03/2020 - 22/03/2020,16,3,2020,22,3,2020
23/03/2020 - 29/03/2020,23,3,2020,29,3,2020
30/03/2020 - 05/04/2020,30,3,2020,5,4,2020
06/04/2020 - 12/04/2020,6,4,2020,12,4,2020
13/04/2020 - 19/04/2020,13,4,2020,19,4,2020
20/04/2020 - 26/04/2020,20,4,2020,26,4,2020
27/04/2020 - 03/05/2020,27,4,2020,3,5,2020
04/05/2020 - 10/05/2020,4,5,2020,10,5,2020
11/05/2020 - 17/05/2020,11,5,2020,17,5,2020
18/05/2020 - 24/05/2020,18,5,2020,24,5,2020
25/05/2020 - 31/05/2020,25,5,2020,31,5,2020
01/06/2020 - 07/06/2020,1,6,2020,7,6,2020
08/06/2020 - 14/06/2020,8,6,2020,14,6,2020
15/06/2020 - 21/06/2020,15,6,2020,21,6,2020
22/06/2020 - 28/06/2020,22,6,2020,28,6,2020
29/06/2020 - 05/07/2020,29,6,2020,5,7,2020
06/07/2020 - 12/07/2020,6,7,2020,12,7,2020
13/07/2020 - 19/07/2020,13,7,2020,19,7,2020
20/07/2020 - 26/07/2020,20,7,2020,26,7,2020
27/07/2020 - 02/08/2020,27,7,2020,2,8,2020
03/08/2020 - 09/08/2020,3,8,2020,9,8,2020
10/08/2020 - 16/08/2020,10,8,2020,16,8,2020
17/08/2020 - 23/08/2020,17,8,2020,23,8,2020
24/08/2020 - 30/08/2020,24,8,2020,30,8,2020
31/08/2020 - 06/09/2020,31,8,2020,6,9,2020
07/09/2020 - 13/09/2020,7,9,2020,13,9,2020
14/09/2020 - 20/09/2020,14,9,2020,20,9,2020
21/09/2020 - 27/09/2020,21,9,2020,27,9,2020
28/09/2020 - 04/10/2020,28,9,2020,4,10,2020
05/10/2020 - 11/10/2020,5,10,2020,11,10,2020
12/10/2020 - 18/10/2020,12,10,2020,18,10,2020
19/10/2020 - 25/10/2020,19,10,2020,25,10,2020
26/10/2020 - 01/11/2020,26,10,2020,1,11,2020
02/11/2020 - 08/11/2020,2,11,2020,8,11,2020
09/11/2020 - 15/11/2020,9,11,2020,15,11,2020
16/11/2020 - 22/11/2020,16,11,2020,22,11,2020
23/11/2020 - 29/11/2020,23,11,2020,29,11,2020
30/11/2020 - 06/12/2020,30,11,2020,6,12,2020
07/12/2020 - 13/12/2020,7,12,2020,13,12,2020
14/12/2020 - 20/12/2020,14,12,2020,20,12,2020
21/12/2020 - 27/12/2020,21,12,2020,27,12,2020
28/12/2020 - 03/01/2021,28,12,2020,3,1,2021
